…
<div class='solution'><button>Solution To Step 3 - Permute function</button>


```r
permute <- function(x) {
  x %>%
    mutate(group = sample(group))
}

permute(dat)
```

```
## # A tibble: 100 x 3
##    group     Y subj_id
##    <chr> <dbl>   <int>
##  1 B     113.        1
##  2 A      91.0       2
##  3 A      89.2       3
##  4 B     110.        4
##  5 A     118.        5
##  6 B     104.        6
##  7 B     100.        7
##  8 A      94.1       8
##  9 B      94.8       9
## 10 B      92.5      10
## # ... with 90 more rows
```
…
