…
permute(dat)
```

```
## Warning: `...` is not empty.
## 
## We detected these problematic arguments:
## * `needs_dots`
## 
## These dots only exist to allow future extensions and should be empty.
## Did you misspecify an argument?
```

```
## # A tibble: 100 x 3
##    group     Y subj_id
##    <chr> <dbl>   <int>
##  1 B     113.        1
##  2 B      91.0       2
##  3 A      89.2       3
##  4 B     110.        4
##  5 B     118.        5
##  6 A     104.        6
##  7 A     100.        7
##  8 B      94.1       8
##  9 A      94.8       9
## 10 A      92.5      10
## # ... with 90 more rows
```
…
