Lab 10 Correlations | ug2-practical
…
Miller and Haden: Type of Data

# Most likely to be interval data

** Click tab to see solution **

10.5.1.3 Task 3

Miller and Haden: Filtering out potential NAs

filter(mh, !is.na(Abil)) # would keep everybody from the whole dataset that has a score for Ability
filter(mh, is.na(Abil)) # would keep everybody from the whole dataset that does not have a score for Ability

## # A tibble: 25 x 5
##    Participant  Abil    IQ  Home    TV
##          <dbl> <dbl> <dbl> <dbl> <dbl>
##  1           1    61   107   144   487
##  2           2    56   109   123   608
##  3           3    45    81   108   640
##  4           4    66   100   155   493
##  5           5    49    92   103   636
##  6           6    62   105   161   407
##  7           7    61    92   138   463
##  8           8    55   101   119   717
##  9           9    62   118   155   643
## 10          10    61    99   121   674
## # ... with 15 more rows
…
