Lab 5 Permutation Tests - A Skill Set | Level 2 Research Methods and Statistics Practical Skills
…
1.3 - Something to do with read_csv()

1.4 - pipe (%>%) dat into the mutate line shown

Portfolio Point - Different uses of row_number

You will see that, in the example here, to put a row number for each of the participants we do not have to state the number of participants we have. In the Preclass however, we did. What is the difference? Well, in the Preclass we were making a tibble and trying to create a column in that tibble using row_numbers. If you want to do that you have to state the number of rows, e.g. 1:20. However, in this example in the lab today the tibble already exists, we are just adding to it. If that is the case then you can just mutate on a column of row numbers without stating the number of participants. In summary:

When creating the tibble, state the number of participants in row_numbers().

If tibble already exists, just mutate on row_numbers(). No need for specific numbers.

Have a look at the resulting tibble, dat.

## # A tibble: 100 x 3
##    group     Y subj_id
##    <chr> <dbl>   <int>
##  1 A     113.        1
##  2 A      91.0       2
##  3 A      89.2       3
##  4 A     110.        4
##  5 A     118.        5
##  6 A     104.        6
##  7 A     100.        7
##  8 A      94.1       8
##  9 A      94.8       9
## 10 A      92.5      10
## # ... with 90 more rows
…
## [1] FALSE
## [1] TRUE

Return to Task

5.5.1.3 Step 3

permute <- function(x) {
  x %>%
    mutate(group = sample(group))
}

permute(dat)

## # A tibble: 100 x 3
##    group     Y subj_id
##    <chr> <dbl>   <int>
##  1 B     113.        1
##  2 A      91.0       2
##  3 A      89.2       3
##  4 B     110.        4
##  5 A     118.        5
##  6 B     104.        6
##  7 B     100.        7
##  8 A      94.1       8
##  9 B      94.8       9
## 10 B      92.5      10
## # ... with 90 more rows
…
